%YAML 1.1
%TAG !u! tag:unity3d.com,2011:
--- !u!1045 &1
EditorBuildSettings:
  m_ObjectHideFlags: 0
  serializedVersion: 2
  m_Scenes:
  - enabled: 1
    path: Assets/Scenes/Menu.unity
    guid: aee62a12370ace846a9419fbdceef328
  - enabled: 1
    path: Assets/Scenes/Game.unity
    guid: 1bcbba6de70b1104f9682cc9a1286582
  m_configObjects: {}
